Proyecto personal de análisis de datos
…
Exploración por Centro & Fotoperiodo

#Madurez  ~ Centro + Fotoperiodo
Madurez <- read_excel("Coho Season 2021-2022.xlsx", sheet = 2) %>% 
  clean_names()
Madurez$site_name <- factor(Madurez$site_name, levels = c('Chidhuapi 1', 'Chope','Chidhuapi 2', 'Colaco 4','Punta Yoye','Teupa', 'Compu', 'Aulin','Cachihue', 'Chidhuapi 3','Linguar','Malomacum'))
Madurez

## # A tibble: 220 × 11
##    jaula_individual site_name cage    percent_deformation percent_mature
##               <dbl> <fct>     <chr>                 <dbl>          <dbl>
##  1                1 Teupa     102                  0.0680        0      
##  2                1 Teupa     103                  0.0451        0      
##  3                1 Teupa     104                  0.0464        0      
##  4                1 Teupa     107                  0.0692        0      
##  5                0 Teupa     101/105              0.0117        0.00553
##  6                0 Teupa     101-108              0.0334        0      
##  7                0 Teupa     102/107              0.0539        0      
##  8                0 Teupa     102-103              0.0975        0      
##  9                0 Teupa     103-108              0.0658        0      
## 10                0 Teupa     104-106              0.0914        0      
## # … with 210 more rows, and 6 more variables: percent_desadaptado <dbl>,
## #   origen <chr>, tipo_orgien <chr>, fotoperiodo <dbl>, proveedor <chr>,
## #   potencia <dbl>
…
